\relax 
\catcode `"\active 
\providecommand\tcolorbox@label[2]{}
\select@language{swedish}
\@writefile{toc}{\select@language{swedish}}
\@writefile{lof}{\select@language{swedish}}
\@writefile{lot}{\select@language{swedish}}
\select@language{swedish}
\@writefile{toc}{\select@language{swedish}}
\@writefile{lof}{\select@language{swedish}}
\@writefile{lot}{\select@language{swedish}}
\citation{claessen00}
\@writefile{toc}{\contentsline {section}{\numberline {1}Inledning}{1}}
\newlabel{intro}{{1}{1}}
\@writefile{toc}{\contentsline {subsection}{\numberline {1.1}Definitioner}{1}}
\newlabel{definitions}{{1.1}{1}}
\citation{barr15}
\citation{barr15}
\citation{barr15}
\@writefile{toc}{\contentsline {subsection}{\numberline {1.2}Bakgrund - orakelproblemet}{2}}
\newlabel{background}{{1.2}{2}}
\citation{gries81}
\citation{gries81}
\citation{gries81}
\@writefile{lof}{\contentsline {figure}{\numberline {1}{\ignorespaces Modifierad version av exempel 15.1.1 fr\r an \cite  {gries81}}}{3}}
\newlabel{invariantcodefigure}{{1}{3}}
\@writefile{toc}{\contentsline {section}{\numberline {2}Invarianter}{3}}
\newlabel{invariants}{{2}{3}}
\citation{ernst01}
\citation{ernst01}
\citation{baliga11}
\citation{barr15}
\citation{hangal02}
\@writefile{toc}{\contentsline {subsection}{\numberline {2.1}Applikationer av invarianter}{4}}
\newlabel{applications}{{2.1}{4}}
\citation{chen98}
\@writefile{toc}{\contentsline {subsection}{\numberline {2.2}Metamorfiska relationer}{5}}
\newlabel{metamorfic}{{2.2}{5}}
\@writefile{toc}{\contentsline {subsection}{\numberline {2.3}Testgenerering utav invarianter}{5}}
\newlabel{generation}{{2.3}{5}}
\citation{pacheco05}
\citation{pacheco05}
\citation{pacheco05}
\citation{zhang11}
\citation{boshernitsan06}
\newlabel{testgenerationtreefigure}{{2.3}{6}}
\@writefile{lof}{\contentsline {figure}{\numberline {2}{\ignorespaces Generering av testinmatning i \cite  {pacheco05}. L\r adorna representerar testinmatningar som kan kombineras eller ut\"okas. Testinmatningar som bryter mot n\r agon invariant sk\"ars bort.}}{6}}
\citation{ernst07}
\@writefile{toc}{\contentsline {section}{\numberline {3}Automatisk detektion av invarianter - Daikon}{7}}
\newlabel{daikon}{{3}{7}}
\@writefile{toc}{\contentsline {subsection}{\numberline {3.1}Instrumentationen}{7}}
\newlabel{instrumentation}{{3.1}{7}}
\newlabel{abstractsyntaxtreefigure}{{3.1}{8}}
\@writefile{lof}{\contentsline {figure}{\numberline {3}{\ignorespaces Ett exempel p\r a ett abstrakt syntax tr\"ad som representerar koden \unhbox \voidb@x \hbox {\emph  {var lista = nyLista(10);}}.}}{8}}
\@writefile{toc}{\contentsline {subsection}{\numberline {3.2}Invariantmodeller}{8}}
\newlabel{models}{{3.2}{8}}
\citation{ernst01}
\citation{gotlieb03}
\@writefile{toc}{\contentsline {subsection}{\numberline {3.3}Invariantdetektion}{9}}
\newlabel{detection}{{3.3}{9}}
\citation{ernst01}
\citation{ernst01}
\citation{ernst01}
\citation{ernst01}
\@writefile{toc}{\contentsline {subsection}{\numberline {3.4}Exempelk\"orning av Daikon p\r a array-sum}{10}}
\newlabel{results}{{3.4}{10}}
\@writefile{lof}{\contentsline {figure}{\numberline {4}{\ignorespaces Resultaten av Daikons operation p\r a exemplet i fig. \ref  {invariantcodefigure}. Taget och \"oversatt ifr\r an fig. 3 i \cite  {ernst01}}}{11}}
\newlabel{resultsfigure}{{4}{11}}
\citation{ernst01}
\citation{ernst01}
\@writefile{toc}{\contentsline {section}{\numberline {4}Analys av Daikon}{12}}
\newlabel{analysis}{{4}{12}}
\@writefile{toc}{\contentsline {subsection}{\numberline {4.1}Tidskrav}{12}}
\newlabel{complexity}{{4.1}{12}}
\@writefile{toc}{\contentsline {subsection}{\numberline {4.2}Detekterade invarianternas korrekthet}{12}}
\newlabel{correctness}{{4.2}{12}}
\citation{ernst01}
\citation{ernst00}
\citation{ernst00}
\@writefile{toc}{\contentsline {section}{\numberline {5}F\"orb\"attringar f\"or Daikon och vidare l\"asning}{13}}
\newlabel{further}{{5}{13}}
\citation{ernst99}
\citation{perkins04}
\citation{*}
\bibstyle{babplain}
\bibdata{kandi_kallor}
\bibcite{baliga11}{1}
\@writefile{toc}{\contentsline {section}{\numberline {6}Sammanfattning}{14}}
\newlabel{summary}{{6}{14}}
\bibcite{barr15}{2}
\bibcite{boshernitsan06}{3}
\bibcite{chen98}{4}
\bibcite{claessen00}{5}
\bibcite{ernst01}{6}
\bibcite{ernst00}{7}
\bibcite{ernst99}{8}
\bibcite{ernst07}{9}
\@writefile{toc}{\contentsline {section}{Referenser}{15}}
\select@language{swedish}
\@writefile{toc}{\select@language{swedish}}
\@writefile{lof}{\select@language{swedish}}
\@writefile{lot}{\select@language{swedish}}
\select@language{swedish}
\@writefile{toc}{\select@language{swedish}}
\@writefile{lof}{\select@language{swedish}}
\@writefile{lot}{\select@language{swedish}}
\bibcite{gotlieb03}{10}
\bibcite{gries81}{11}
\bibcite{hangal02}{12}
\bibcite{pacheco05}{13}
\bibcite{perkins04}{14}
\bibcite{zhang11}{15}
\select@language{swedish}
\@writefile{toc}{\select@language{swedish}}
\@writefile{lof}{\select@language{swedish}}
\@writefile{lot}{\select@language{swedish}}
\select@language{swedish}
\@writefile{toc}{\select@language{swedish}}
\@writefile{lof}{\select@language{swedish}}
\@writefile{lot}{\select@language{swedish}}
\newlabel{lastpage}{{6}{16}}
\newlabel{@lastappendixpage}{{0}{0}}
