\relax 
\catcode `"\active 
\providecommand\tcolorbox@label[2]{}
\select@language{swedish}
\@writefile{toc}{\select@language{swedish}}
\@writefile{lof}{\select@language{swedish}}
\@writefile{lot}{\select@language{swedish}}
\@writefile{toc}{\contentsline {section}{\numberline {1}Inledning}{1}}
\@writefile{toc}{\contentsline {section}{\numberline {2}Invarianter}{2}}
\@writefile{toc}{\contentsline {subsection}{\numberline {2.1}Exempel}{2}}
\@writefile{lof}{\contentsline {figure}{\numberline {1}{\ignorespaces Modifierad version av exempel 15.1.1 fr\r an [gries81]}}{3}}
\@writefile{toc}{\contentsline {subsection}{\numberline {2.2}Anv\"andning}{3}}
\@writefile{toc}{\contentsline {section}{\numberline {3}Daikon invariantdetektorn}{4}}
\@writefile{toc}{\contentsline {subsection}{\numberline {3.1}Instrumentationen}{5}}
\@writefile{toc}{\contentsline {subsection}{\numberline {3.2}Invariantdetektion}{5}}
\@writefile{toc}{\contentsline {subsection}{\numberline {3.3}Invariantslag}{6}}
\@writefile{toc}{\contentsline {subsection}{\numberline {3.4}Exemplet}{7}}
\@writefile{toc}{\contentsline {section}{\numberline {4}F\"orb\"attringar f\"or Daikon och vidare l\"asning}{7}}
\@writefile{lof}{\contentsline {figure}{\numberline {2}{\ignorespaces Resultaten fr\r an [ernst01], fig. 3}}{8}}
\citation{*}
\bibstyle{ieeetr}
\bibdata{uppsats_kallor}
\bibcite{barr15}{1}
\@writefile{toc}{\contentsline {section}{\numberline {5}Slutsatser}{9}}
\@writefile{toc}{\contentsline {section}{Referenser}{9}}
\bibcite{ernst01}{2}
\bibcite{ernst07}{3}
\bibcite{gries81}{4}
\bibcite{claessen00}{5}
\bibcite{hangal02}{6}
\bibcite{boshernitsan06}{7}
\bibcite{ernst99}{8}
\bibcite{baliga11}{9}
\bibcite{chen98}{10}
\bibcite{elyasov15}{11}
\bibcite{pacheco05}{12}
\bibcite{perkins04}{13}
\newlabel{lastpage}{{5}{11}}
\newlabel{@lastappendixpage}{{0}{0}}
