\relax 
\select@language{english}
\@writefile{toc}{\select@language{english}}
\@writefile{lof}{\select@language{english}}
\@writefile{lot}{\select@language{english}}
\citation{erkio01}
\citation{erkiomakela96}
\citation{erkio94}
\citation{verkamo92}
\@writefile{toc}{\contentsline {section}{\numberline {1}Introduction}{1}}
\@writefile{toc}{\contentsline {section}{\numberline {2}Structure}{1}}
\@writefile{toc}{\contentsline {subsection}{\numberline {2.1}Abstract or summary}{1}}
\@writefile{toc}{\contentsline {subsection}{\numberline {2.2}Introduction}{2}}
\@writefile{toc}{\contentsline {subsection}{\numberline {2.3}Topic chapters}{2}}
\@writefile{toc}{\contentsline {subsection}{\numberline {2.4}Reference usage}{3}}
\@writefile{toc}{\contentsline {subsection}{\numberline {2.5}Conclusion}{4}}
\@writefile{toc}{\contentsline {subsection}{\numberline {2.6}Creating the list of references}{4}}
\citation{abiteboul}
\citation{dietinger}
\citation{bray}
\citation{dantowsley90}
\citation{gannonetal89}
\@writefile{toc}{\contentsline {section}{\numberline {3}Layout}{6}}
\@writefile{toc}{\contentsline {subsection}{\numberline {3.1}Disposition of text sections}{6}}
\@writefile{toc}{\contentsline {subsection}{\numberline {3.2}General text layout}{7}}
\@writefile{toc}{\contentsline {subsection}{\numberline {3.3}Figures and tables}{8}}
\@writefile{lof}{\contentsline {figure}{\numberline {1}{\ignorespaces Figure elements.}}{8}}
\newlabel{kuvaesimerkki}{{1}{8}}
\@writefile{toc}{\contentsline {subsection}{\numberline {3.4}Headings}{9}}
\@writefile{toc}{\contentsline {subsection}{\numberline {3.5}Using this model}{9}}
\citation{*}
\bibstyle{tktl}
\bibdata{lahteet}
\bibcite{abiteboul}{AQM97}
\bibcite{bray}{BPS98}
\bibcite{crowdenetal79}{CDM98}
\bibcite{dietinger}{Die99}
\bibcite{dantowsley90}{DaT90}
\@writefile{toc}{\contentsline {section}{\numberline {4}Conclusion}{10}}
\@writefile{toc}{\contentsline {section}{References}{10}}
\bibcite{erkiomakela96}{ErM96}
\bibcite{erkio01}{EMN01}
\bibcite{erkio94}{Erk94}
\bibcite{fogelbergetal89}{FHS89}
\bibcite{gannonetal89}{Gan89}
\bibcite{grimm87}{Gri87}
\bibcite{harkinsplung82}{HaP82}
\bibcite{julkohj81}{Jul81}
\bibcite{kilpelainen00}{Kil00}
\bibcite{smith78b}{Smi78b}
\bibcite{smith78a}{Smi78a}
\bibcite{verkamo92}{Ver92}
\newlabel{lastpage}{{4}{12}}
\newlabel{@lastappendixpage}{{1}{1}}
\@writefile{toc}{\contentsline {section}{Appendices}{}}
\@writefile{toc}{ \contentsline {section}{\hspace  {0.5cm}1 Model ABC}{}}
