\select@language {swedish}
\contentsline {section}{\numberline {1}Johdanto}{1}
\contentsline {section}{\numberline {2}Kirjoituksen rakenne}{1}
\contentsline {subsection}{\numberline {2.1}Tiivistelm\"a}{1}
\contentsline {subsection}{\numberline {2.2}Johdanto}{2}
\contentsline {subsection}{\numberline {2.3}K\"asittelyluvut}{2}
\contentsline {subsection}{\numberline {2.4}L\"ahdeviittausten k\"aytt\"o}{3}
\contentsline {subsection}{\numberline {2.5}Yhteenveto}{4}
\contentsline {subsection}{\numberline {2.6}L\"ahdeluettelon laatiminen}{4}
\contentsline {section}{\numberline {3}Ulkoasulliset seikat}{6}
\contentsline {subsection}{\numberline {3.1}Ty\"on osien j\"arjestys}{6}
\contentsline {subsection}{\numberline {3.2}Tekstin yleinen sijoittelu}{7}
\contentsline {subsection}{\numberline {3.3}Kuvat ja taulukot}{8}
\contentsline {subsection}{\numberline {3.4}Otsikot}{9}
\contentsline {subsection}{\numberline {3.5}Mallin k\"aytt\"o}{9}
\contentsline {section}{\numberline {4}Yhteenveto}{9}
\contentsline {section}{Referenser}{10}
\contentsline {section}{Bilagor}{}
 \contentsline {section}{\hspace {0.5cm}1 Malli ABC}{}
