\relax 
\catcode `"\active 
\select@language{finnish}
\@writefile{toc}{\select@language{finnish}}
\@writefile{lof}{\select@language{finnish}}
\@writefile{lot}{\select@language{finnish}}
\@writefile{toc}{\contentsline {section}{\numberline {1}Johdanto}{1}}
\@writefile{toc}{\contentsline {section}{\numberline {2}{\rmfamily  B\kern -.05em\textsc  {i\kern -.025em b}\kern -.08emT\kern -.1667em\lower .7ex\hbox {E}\kern -.125emX}-tyylin \texttt  {tktl}\ k\"aytt\"o}{1}}
\@writefile{toc}{\contentsline {subsection}{\numberline {2.1}Merkint\"atyypit (entry types)}{1}}
\newlabel{merkintatyypit}{{2.1}{1}}
\@writefile{toc}{\contentsline {subsection}{\numberline {2.2}Kent\"at (fields)}{4}}
\newlabel{kentat}{{2.2}{4}}
\@writefile{toc}{\contentsline {subsection}{\numberline {2.3}URLin mainitseminen}{8}}
\newlabel{url}{{2.3}{8}}
\@writefile{toc}{\contentsline {subsection}{\numberline {2.4}Muutama ohje kent\"an \texttt  {TYPE} k\"ayt\"ost\"a}{9}}
\@writefile{toc}{\contentsline {section}{\numberline {3}L\"ahdeluettelon tuottaminen {\rmfamily  B\kern -.05em\textsc  {i\kern -.025em b}\kern -.08emT\kern -.1667em\lower .7ex\hbox {E}\kern -.125emX}-ohjelmaa\newline  k\"aytt\"aen}{10}}
\newlabel{lahdeluettelo}{{3}{10}}
\@writefile{toc}{\contentsline {section}{\numberline {4}Ohjelmien k\"aytt\"o}{11}}
\newlabel{ohjelmat}{{4}{11}}
\newlabel{@lastappendixpage}{{12}{12}}
\newlabel{lastpage}{{4}{12}}
